%YAML 1.1
%TAG !u! tag:unity3d.com,2011:
--- !u!114 &11400000
MonoBehaviour:
  m_ObjectHideFlags: 0
  m_CorrespondingSourceObject: {fileID: 0}
  m_PrefabInstance: {fileID: 0}
  m_PrefabAsset: {fileID: 0}
  m_GameObject: {fileID: 0}
  m_Enabled: 1
  m_EditorHideFlags: 0
  m_Script: {fileID: 11500000, guid: 9a6c167a9a6c5f94986039d4a42b1366, type: 3}
  m_Name: Bacon
  m_EditorClassIdentifier: 
  Name: Bacon
  Mesh: {fileID: -2106534023526245753, guid: 6dc8d9b3354da7345842d8b7ffdf856d, type: 3}
