%YAML 1.1
%TAG !u! tag:unity3d.com,2011:
--- !u!114 &11400000
MonoBehaviour:
  m_ObjectHideFlags: 0
  m_CorrespondingSourceObject: {fileID: 0}
  m_PrefabInstance: {fileID: 0}
  m_PrefabAsset: {fileID: 0}
  m_GameObject: {fileID: 0}
  m_Enabled: 1
  m_EditorHideFlags: 0
  m_Script: {fileID: 11500000, guid: 9a6c167a9a6c5f94986039d4a42b1366, type: 3}
  m_Name: HawaiianFlower
  m_EditorClassIdentifier: 
  Name: Hawaiian Flower
  Mesh: {fileID: 380146103445175969, guid: 4c0f0c4e63047d849acea4ec8eb4de7c, type: 3}
